Prüfungsleistung Data Science & Machine Learning: Salary by job title and country
…
Jobs

Da in dem Datensatz teilweise Jobs nur einmalig vertreten sind, kann ein erhebliches Stichproben-Bias verursacht werden. Da das mittlere Einkommen ein wichtiges Merkmal in unserer explorativen Datenanalyse darstellt und mindestens 30 Einträge für eine aussagekräftige Stichprobe nötig sind, haben wir uns dazu entschlossen alle Einträge mit N<30 bei der Anzahl der Jobtitel (N) abzuschneiden.

Code

filtered_data <- salary_final %>%
  group_by(Job.Title) %>%
  summarise(job_count = n()) %>%
  filter(job_count > 30) %>%
  inner_join(salary_final, by = "Job.Title")

print(filtered_data)

# A tibble: 6,398 × 11
   Job.Title   job_count   Age Gender Education.Level Years.Of.Experience Salary
   <chr>           <int> <dbl> <chr>            <dbl>               <dbl>  <dbl>
 1 Back end D…       242    33 Female               2                   5 110000
 2 Back end D…       242    32 Male                 1                   4  95000
 3 Back end D…       242    26 Female               2                   3  90000
 4 Back end D…       242    26 Female               2                   2  70000
 5 Back end D…       242    24 Female               1                   1  60000
 6 Back end D…       242    26 Female               2                   3  90000
 7 Back end D…       242    24 Female               2                   1  60000
 8 Back end D…       242    34 Male                 2                   6 125000
 9 Back end D…       242    29 Female               1                   3  85000
10 Back end D…       242    23 Male                 1                   1  55000
# ℹ 6,388 more rows
# ℹ 4 more variables: Country <chr>, Race <chr>, Senior <dbl>, SalaryKat <fct>
…
   0    1 <NA> 
3912 2349  137 

Auflösen der NAs

Code

# Auswahl aller Zeilen mit NA-Werten in der Spalte "job_type"
na_job_type_rows <- subset(filtered_data, is.na(job_type))

# Anzeige der ausgewählten Zeilen mit NA in "job_type"
na_job_type_rows

# A tibble: 137 × 13
   Job.Title   job_count   Age Gender Education.Level Years.Of.Experience Salary
   <chr>           <int> <dbl> <chr>            <dbl>               <dbl>  <dbl>
 1 Product De…        80    33 Male                 2                   6  90000
 2 Product De…        80    43 Female               3                  18 140000
 3 Product De…        80    45 Female               3                  15 150000
 4 Product De…        80    45 Female               3                  15 150000
 5 Product De…        80    44 Female               3                  15 150000
 6 Product De…        80    44 Female               3                  15 150000
 7 Product De…        80    27 Male                 1                   3  60000
 8 Product De…        80    27 Male                 1                   3  60000
 9 Product De…        80    27 Male                 1                   3  60000
10 Product De…        80    27 Male                 1                   3  60000
# ℹ 127 more rows
# ℹ 6 more variables: Country <chr>, Race <chr>, Senior <dbl>, SalaryKat <fct>,
#   ID <int>, job_type <dbl>

Das Ergebnis ist eine Table welche nur aus Product Designer & Receptionist besteht. Diese fügen wir den Administrativen Jobs hinzu.

Code

# Aktualisierung der job_type-Spalte für die spezifischen Job-Titel
filtered_data$job_type[filtered_data$Job.Title %in% c("Product Designer", "Receptionist")] <- 1

# Anzeige der aktualisierten Daten für die ausgewählten Job-Titel
subset(filtered_data, Job.Title %in% c("Product Designer", "Receptionist"))

# A tibble: 137 × 13
   Job.Title   job_count   Age Gender Education.Level Years.Of.Experience Salary
   <chr>           <int> <dbl> <chr>            <dbl>               <dbl>  <dbl>
 1 Product De…        80    33 Male                 2                   6  90000
 2 Product De…        80    43 Female               3                  18 140000
 3 Product De…        80    45 Female               3                  15 150000
 4 Product De…        80    45 Female               3                  15 150000
 5 Product De…        80    44 Female               3                  15 150000
 6 Product De…        80    44 Female               3                  15 150000
 7 Product De…        80    27 Male                 1                   3  60000
 8 Product De…        80    27 Male                 1                   3  60000
 9 Product De…        80    27 Male                 1                   3  60000
10 Product De…        80    27 Male                 1                   3  60000
# ℹ 127 more rows
# ℹ 6 more variables: Country <chr>, Race <chr>, Senior <dbl>, SalaryKat <fct>,
#   ID <int>, job_type <dbl>
…
